ASxxxx Assembler V02.00 + NoICE + SDCC mods  (STMicroelectronics STM8), page 1.
Hexadecimal [24-Bits]

Symbol Table

    .__.$$$.                                                    =  002710 L
    .__.ABS.                                                    =  000000 G
    .__.CPU.                                                    =  000000 L
    .__.H$L.                                                    =  000001 L
  9 A$spi/spi$101                                                  00001A GR
  9 A$spi/spi$109                                                  00001E GR
  9 A$spi/spi$112                                                  000021 GR
  9 A$spi/spi$119                                                  000023 GR
  9 A$spi/spi$121                                                  000026 GR
  9 A$spi/spi$123                                                  000028 GR
  9 A$spi/spi$132                                                  00002A GR
  9 A$spi/spi$133                                                  00002C GR
  9 A$spi/spi$135                                                  00002E GR
  9 A$spi/spi$136                                                  000031 GR
  9 A$spi/spi$142                                                  000033 GR
  9 A$spi/spi$149                                                  000035 GR
  9 A$spi/spi$157                                                  000039 GR
  9 A$spi/spi$174                                                  00003A GR
  9 A$spi/spi$177                                                  00003D GR
  9 A$spi/spi$184                                                  00003F GR
  9 A$spi/spi$185                                                  000042 GR
  9 A$spi/spi$186                                                  000044 GR
  9 A$spi/spi$192                                                  000045 GR
  9 A$spi/spi$194                                                  000048 GR
  9 A$spi/spi$196                                                  00004A GR
  9 A$spi/spi$203                                                  00004C GR
  9 A$spi/spi$212                                                  00004F GR
  9 A$spi/spi$68                                                   000000 GR
  9 A$spi/spi$70                                                   000004 GR
  9 A$spi/spi$76                                                   000006 GR
  9 A$spi/spi$78                                                   000009 GR
  9 A$spi/spi$80                                                   00000B GR
  9 A$spi/spi$86                                                   00000E GR
  9 A$spi/spi$91                                                   000012 GR
  9 A$spi/spi$95                                                   000016 GR
  9 C$spi.c$10$2_0$14                                           =  000006 GR
  9 C$spi.c$12$2_0$14                                           =  00000E GR
  9 C$spi.c$13$2_0$14                                           =  000012 GR
  9 C$spi.c$14$2_0$14                                           =  000016 GR
  9 C$spi.c$15$2_0$14                                           =  00001A GR
  9 C$spi.c$16$2_0$14                                           =  00001E GR
  9 C$spi.c$17$2_0$14                                           =  000023 GR
  9 C$spi.c$19$3_0$15                                           =  00002A GR
  9 C$spi.c$20$3_0$15                                           =  000033 GR
  9 C$spi.c$22$2_0$14                                           =  000035 GR
  9 C$spi.c$24$1_0$13                                           =  000039 GR
  9 C$spi.c$26$1_0$17                                           =  00003A GR
  9 C$spi.c$28$1_0$17                                           =  00003A GR
  9 C$spi.c$29$1_0$17                                           =  00003F GR
  9 C$spi.c$30$1_0$17                                           =  000045 GR
  9 C$spi.c$31$1_0$17                                           =  00004C GR
  9 C$spi.c$32$1_0$17                                           =  00004F GR
  9 C$spi.c$7$0_0$13                                            =  000000 GR
  9 C$spi.c$9$1_0$13                                            =  000000 GR
  7 Fspi$__str_0$0_0$0                                          =  000000 GR
ASxxxx Assembler V02.00 + NoICE + SDCC mods  (STMicroelectronics STM8), page 2.
Hexadecimal [24-Bits]

Symbol Table

  8 Fspi$__xinit_init$0_0$0                                     =  000000 GR
  2 G$init$0_0$0                                                =  000000 GR
  9 G$spi_init$0$0                                              =  000000 GR
  9 G$spi_rw$0$0                                                =  00003A GR
  9 XG$spi_init$0$0                                             =  000039 GR
  9 XG$spi_rw$0$0                                               =  00004F GR
  7 ___str_0                                                       000000 R
  8 __xinit__init                                                  000000 R
  2 _init                                                          000000 GR
    _printf                                                        ****** GX
  9 _spi_init                                                      000000 GR
  9 _spi_rw                                                        00003A GR


ASxxxx Assembler V02.00 + NoICE + SDCC mods  (STMicroelectronics STM8), page 3.
Hexadecimal [24-Bits]

Area Table

   0 _CODE                                      size      0   flags    0
   1 DATA                                       size      0   flags    0
   2 INITIALIZED                                size      1   flags    0
   3 DABS                                       size      0   flags    8
   4 HOME                                       size      0   flags    0
   5 GSINIT                                     size      0   flags    0
   6 GSFINAL                                    size      0   flags    0
   7 CONST                                      size     11   flags    0
   8 INITIALIZER                                size      1   flags    0
   9 CODE                                       size     50   flags    0
   A CABS                                       size      0   flags    8

